…
Now to tidy the data into our desired columns listed above, we use the gather, separate, spread method.

# get index of first column that contains metric data
mcol1 <- which(str_detect(headers, "METRIC")) %>% first()

tidy_data <- raw_data %>% 
  gather(KEY, VALUE, mcol1:ncols) %>% 
  separate(KEY, into = c("GROUP", "METRIC"), sep = "_") %>% 
  spread(METRIC, VALUE) %>% 
  mutate(DATE = as.Date(DATE), TIME = as.hms(TIME)) # reclass for nicer printing

tidy_data

## # A tibble: 30 x 8
##       ID DATE       WEEKDAY   TIME   GROUP  METRIC1 METRIC2 METRIC3
##    <dbl> <date>     <chr>     <time> <chr>    <dbl>   <dbl>   <dbl>
##  1  1.00 2019-01-01 Tuesday   12:00  GROUP1  0.468   0.810    0.310
##  2  1.00 2019-01-01 Tuesday   12:00  GROUP2  0.476   0.0598   0.781
##  3  1.00 2019-01-01 Tuesday   12:00  GROUP3  0.844   0.423    0.409
##  4  2.00 2019-01-02 Wednesday 13:00  GROUP1  0.822   0.511    0.277
##  5  2.00 2019-01-02 Wednesday 13:00  GROUP2  0.0179  0.802    0.212
##  6  2.00 2019-01-02 Wednesday 13:00  GROUP3  0.470   0.124    0.278
##  7  3.00 2019-01-03 Thursday  14:00  GROUP1  0.891   0.638    0.519
##  8  3.00 2019-01-03 Thursday  14:00  GROUP2  0.795   0.749    0.360
##  9  3.00 2019-01-03 Thursday  14:00  GROUP3  0.281   0.121    0.354
## 10  4.00 2019-01-04 Friday    15:00  GROUP1  0.248   0.131    0.935
## # ... with 20 more rows
…
