Tidying Multi-Header Excel Data with R
…
Now to tidy the data into our desired columns listed above, we use the gather, separate, spread method.

# get index of first column that contains metric data
mcol1 <- which(str_detect(headers, "METRIC")) %>% first()

tidy_data <- raw_data %>% 
  gather(KEY, VALUE, mcol1:ncols) %>% 
  separate(KEY, into = c("GROUP", "METRIC"), sep = "_") %>% 
  spread(METRIC, VALUE) %>% 
  mutate(DATE = as.Date(DATE), TIME = as.hms(TIME)) # reclass for nicer printing

tidy_data

## # A tibble: 30 x 8
##       ID DATE       WEEKDAY   TIME   GROUP  METRIC1 METRIC2 METRIC3
##    <dbl> <date>     <chr>     <time> <chr>    <dbl>   <dbl>   <dbl>
##  1  1.00 2019-01-01 Tuesday   12:00  GROUP1   0.562  0.0435   0.232
##  2  1.00 2019-01-01 Tuesday   12:00  GROUP2   0.666  0.611    0.958
##  3  1.00 2019-01-01 Tuesday   12:00  GROUP3   0.206  0.104    0.201
##  4  2.00 2019-01-02 Wednesday 13:00  GROUP1   0.799  0.761    0.670
##  5  2.00 2019-01-02 Wednesday 13:00  GROUP2   0.567  0.857    0.282
##  6  2.00 2019-01-02 Wednesday 13:00  GROUP3   0.442  0.868    0.696
##  7  3.00 2019-01-03 Thursday  14:00  GROUP1   0.514  0.444    0.204
##  8  3.00 2019-01-03 Thursday  14:00  GROUP2   0.477  0.457    0.254
##  9  3.00 2019-01-03 Thursday  14:00  GROUP3   0.673  0.149    0.408
## 10  4.00 2019-01-04 Friday    15:00  GROUP1   0.599  0.597    0.172
## # ... with 20 more rows
…
